2024 ACS Workshop - Designing and Analyzing Agricultural Studies: intro and example in R
…
A model is only valid for inference (i.e., means and pwc) IF it fulfills the linear model assumptions.

g) Linear model assumptions

Extracting residuals

First, let’s extract our model residuals, and also create studentized residuals.

rcbd_mix_resid <- augment(rcbd_mix_mod) %>%
  mutate(.studresid = rstudent(rcbd_mix_mod))

rcbd_mix_resid

# A tibble: 36 × 16
   yield_kgha rep   nrate_kgha krate_kgha .fitted  .resid  .hat  .cooksd .fixed
        <int> <fct> <fct>      <fct>        <dbl>   <dbl> <dbl>    <dbl>  <dbl>
 1       1350 1     0          0            1532.  -182.  0.262 0.00141   1503.
 2       2110 1     0          30           2879.  -769.  0.262 0.0253    2850.
 3       5725 1     0          60           4455.  1270.  0.262 0.0689    4426.
 4       2988 1     100        0            2373.   615.  0.262 0.0161    2344 
 5       3438 1     100        30           4253.  -815.  0.262 0.0283    4224.
 6       6525 1     100        60           5380.  1145.  0.262 0.0560    5351 
 7       2825 1     200        0            2921.   -95.5 0.262 0.000390  2892.
 8       4400 1     200        30           5648. -1248.  0.262 0.0664    5618.
 9       7025 1     200        60           5363.  1662.  0.262 0.118     5334 
10       2250 2     0          0            1557.   693.  0.262 0.0205    1503.
# ℹ 26 more rows
# ℹ 7 more variables: .mu <dbl>, .offset <dbl>, .sqrtXwt <dbl>, .sqrtrwt <dbl>,
#   .weights <dbl>, .wtres <dbl>, .studresid <dbl>
…
